\contentsline {section}{\numberline {1}Introduction}{1}
\contentsline {subsection}{\numberline {1.1}}{2}
\contentsline {subsection}{\numberline {1.2}}{3}
\contentsline {subsection}{\numberline {1.3}•}{3}
\contentsline {section}{\numberline {2}2}{3}
\contentsline {subsection}{\numberline {2.1}•}{4}
