\relax 
\bibstyle{plain}
\citation{Fennell:2016}
\@writefile{toc}{\contentsline {section}{\numberline {1}Introduction}{1}}
\newlabel{Introduction}{{1}{1}}
\citation{Fennell:2016}
\citation{Fennell:2016}
\@writefile{lof}{\contentsline {figure}{\numberline {1}{\ignorespaces \cite  {Fennell:2016}}}{2}}
\@writefile{toc}{\contentsline {subsection}{\numberline {1.1}}{2}}
\@writefile{toc}{\contentsline {subsection}{\numberline {1.2}}{3}}
\@writefile{toc}{\contentsline {subsection}{\numberline {1.3}•}{3}}
\@writefile{toc}{\contentsline {section}{\numberline {2}2}{3}}
\newlabel{2}{{2}{3}}
\bibdata{bib_casey_williamson}
\citation{Fennell:2016}
\@writefile{toc}{\contentsline {subsection}{\numberline {2.1}•}{4}}
